…
predict(rf_fit, new_data = concrete_test)
```

Here we specify the engine argument `histogram_type = "Random"` to use the extremely randomized trees (XRT) algorithm. For all available engine arguments, consult the engine specific help page for "h2o" of that model. For instance, the h2o link in the help page of `rand_forest()` shows that it uses `h2o::h2o.randomForest`, whose arguments can be passed as engine arguments in `set_engine()`. 

You can also use `fit_resamples` with h2o models. 

```{r rf-fitresample, eval = FALSE}
concrete_folds <-
  vfold_cv(concrete_train, strata = compressive_strength, repeats = 5)

fit_resamples(rf_wflow, resamples = concrete_folds)
#> # A tibble: 119 × 5
#>    id                                         algor…¹ .metric  .model   .predi…²
#>    <chr>                                      <chr>   <list>   <list>   <list>  
#>  1 StackedEnsemble_BestOfFamily_4_AutoML_5_2… stacki… <tibble> <fit[+]> <tibble>
#>  2 StackedEnsemble_AllModels_2_AutoML_5_2022… stacki… <tibble> <fit[+]> <tibble>
#>  3 StackedEnsemble_BestOfFamily_6_AutoML_5_2… stacki… <tibble> <fit[+]> <tibble>
#>  4 GBM_grid_1_AutoML_5_20220629_160716_model… gradie… <tibble> <fit[+]> <tibble>
#>  5 StackedEnsemble_BestOfFamily_3_AutoML_5_2… stacki… <tibble> <fit[+]> <tibble>
#>  6 StackedEnsemble_AllModels_5_AutoML_5_2022… stacki… <tibble> <fit[+]> <tibble>
#>  7 GBM_5_AutoML_5_20220629_160716             gradie… <tibble> <fit[+]> <tibble>
#>  8 GBM_grid_1_AutoML_5_20220629_160716_model… gradie… <tibble> <fit[+]> <tibble>
#>  9 StackedEnsemble_AllModels_1_AutoML_5_2022… stacki… <tibble> <fit[+]> <tibble>
#> 10 GBM_grid_1_AutoML_5_20220629_160716_model… gradie… <tibble> <fit[+]> <tibble>
#> # … with 109 more rows, and abbreviated variable names ¹​algorithm,
#> #   ²​.predictions
```
…
In 120 seconds, AutoML fitted 119 candidate models and returned a leaderboard of all model's cross validation performances. `model_id` is the model's identifier on the h2o server, you can retrieve any model with an id using `extract_fit_parsnip(mod, id = id)` and predict with it. By default, this extracts the best performing one. 

```{r auto-predict, eval = FALSE}
extract_fit_parsnip(auto_fit) %>%
  predict(new_data = concrete_test)
#> # A tibble: 249 × 1
#>    .pred
#>    <dbl>
#>  1 100. 
#>  2 101. 
#>  3  91.9
#>  4  96.5
#>  5 103. 
#>  6 122. 
#>  7  95.0
#>  8 134. 
#>  9 109. 
#> 10  92.9
#> # … with 239 more rows
```

agua includes tools to work with AutoML results:

- `rank_results_automl` returns the leaderboard in tidy format with rankings within each metric

```{r auto-rank, eval = FALSE}
rank_results_automl(auto_fit) %>%
  filter(.metric == "mae") %>% 
  arrange(rank)
#> # A tibble: 119 × 5
#>    id                                                algor…¹ .metric  mean  rank
#>    <chr>                                             <chr>   <chr>   <dbl> <int>
#>  1 StackedEnsemble_AllModels_2_AutoML_5_20220629_16… stacki… mae      2.94     1
#>  2 StackedEnsemble_AllModels_5_AutoML_5_20220629_16… stacki… mae      2.98     2
#>  3 GBM_5_AutoML_5_20220629_160716                    gradie… mae      2.98     3
#>  4 StackedEnsemble_BestOfFamily_4_AutoML_5_20220629… stacki… mae      2.98     4
#>  5 StackedEnsemble_BestOfFamily_3_AutoML_5_20220629… stacki… mae      2.98     5
#>  6 StackedEnsemble_BestOfFamily_6_AutoML_5_20220629… stacki… mae      2.99     6
#>  7 GBM_grid_1_AutoML_5_20220629_160716_model_37      gradie… mae      3.00     7
#>  8 GBM_grid_1_AutoML_5_20220629_160716_model_35      gradie… mae      3.06     8
#>  9 StackedEnsemble_AllModels_1_AutoML_5_20220629_16… stacki… mae      3.07     9
#> 10 GBM_grid_1_AutoML_5_20220629_160716_model_70      gradie… mae      3.07    10
#> # … with 109 more rows, and abbreviated variable name ¹​algorithm
```


- `collect_metrics` returns average statistics of performance metrics (summarized) per model, or raw value in each resample (unsummarized).

```{r auto-metrics, eval = FALSE}
collect_metrics(auto_fit, summarize = FALSE)
#> # A tibble: 4,215 × 5
#>    id                                              algor…¹ .metric cv_id .esti…²
#>    <chr>                                           <chr>   <chr>   <chr>   <dbl>
#>  1 StackedEnsemble_BestOfFamily_4_AutoML_5_202206… stacki… mae     cv_1…    2.67
#>  2 StackedEnsemble_BestOfFamily_4_AutoML_5_202206… stacki… mae     cv_2…    2.96
#>  3 StackedEnsemble_BestOfFamily_4_AutoML_5_202206… stacki… mae     cv_3…    2.86
#>  4 StackedEnsemble_BestOfFamily_4_AutoML_5_202206… stacki… mae     cv_4…    3.31
#>  5 StackedEnsemble_BestOfFamily_4_AutoML_5_202206… stacki… mae     cv_5…    3.09
#>  6 StackedEnsemble_BestOfFamily_4_AutoML_5_202206… stacki… mean_r… cv_1…   15.7 
#>  7 StackedEnsemble_BestOfFamily_4_AutoML_5_202206… stacki… mean_r… cv_2…   17.5 
#>  8 StackedEnsemble_BestOfFamily_4_AutoML_5_202206… stacki… mean_r… cv_3…   17.7 
#>  9 StackedEnsemble_BestOfFamily_4_AutoML_5_202206… stacki… mean_r… cv_4…   24.4 
#> 10 StackedEnsemble_BestOfFamily_4_AutoML_5_202206… stacki… mean_r… cv_5…   16.6 
#> # … with 4,205 more rows, and abbreviated variable names ¹​algorithm, ²​.estimate
```

- `tidy()` returns a tibble with performance and individual model objects. This is helpful if you just want to perform some operations (i.e., predict) on all candidates. 

```{r auto-tidy, eval = FALSE}
tidy(auto_fit) %>%
  mutate(
    .predictions = purrr::map(.model, predict, new_data = head(concrete_test))
  )
#> # A tibble: 119 × 5
#>    id                                         algor…¹ .metric  .model   .predi…²
#>    <chr>                                      <chr>   <list>   <list>   <list>  
#>  1 StackedEnsemble_BestOfFamily_4_AutoML_5_2… stacki… <tibble> <fit[+]> <tibble>
#>  2 StackedEnsemble_AllModels_2_AutoML_5_2022… stacki… <tibble> <fit[+]> <tibble>
#>  3 StackedEnsemble_BestOfFamily_6_AutoML_5_2… stacki… <tibble> <fit[+]> <tibble>
#>  4 GBM_grid_1_AutoML_5_20220629_160716_model… gradie… <tibble> <fit[+]> <tibble>
#>  5 StackedEnsemble_BestOfFamily_3_AutoML_5_2… stacki… <tibble> <fit[+]> <tibble>
#>  6 StackedEnsemble_AllModels_5_AutoML_5_2022… stacki… <tibble> <fit[+]> <tibble>
#>  7 GBM_5_AutoML_5_20220629_160716             gradie… <tibble> <fit[+]> <tibble>
#>  8 GBM_grid_1_AutoML_5_20220629_160716_model… gradie… <tibble> <fit[+]> <tibble>
#>  9 StackedEnsemble_AllModels_1_AutoML_5_2022… stacki… <tibble> <fit[+]> <tibble>
#> 10 GBM_grid_1_AutoML_5_20220629_160716_model… gradie… <tibble> <fit[+]> <tibble>
#> # … with 109 more rows, and abbreviated variable names ¹​algorithm,
#> #   ²​.predictions
```
…
