Introduction to agua • agua
…
# start h2o server
h2o_start()

data(concrete, package = "modeldata")
concrete <-
  concrete %>%
  group_by(across(-compressive_strength)) %>%
  summarize(compressive_strength = mean(compressive_strength),
            .groups = "drop")

concrete
#> # A tibble: 992 × 9
#>    cement blast_furn…¹ fly_ash water super…² coars…³ fine_…⁴   age compr…⁵
#>     <dbl>        <dbl>   <dbl> <dbl>   <dbl>   <dbl>   <dbl> <int>   <dbl>
#>  1   102          153        0  192        0    887     942      3    4.57
#>  2   102          153        0  192        0    887     942      7    7.68
#>  3   102          153        0  192        0    887     942     28   17.3 
#>  4   102          153        0  192        0    887     942     90   25.5 
#>  5   108.         162.       0  204.       0    938.    849      3    2.33
#>  6   108.         162.       0  204.       0    938.    849      7    7.72
#>  7   108.         162.       0  204.       0    938.    849     28   20.6 
#>  8   108.         162.       0  204.       0    938.    849     90   29.2 
#>  9   116          173        0  192        0    910.    892.     3    6.28
#> 10   116          173        0  192        0    910.    892.     7   10.1 
#> # … with 982 more rows, and abbreviated variable names
#> #   ¹​blast_furnace_slag, ²​superplasticizer, ³​coarse_aggregate,
#> #   ⁴​fine_aggregate, ⁵​compressive_strength
…
predict(rf_fit, new_data = concrete_test)
#> # A tibble: 249 × 1
#>    .pred
#>    <dbl>
#>  1  6.42
#>  2  9.54
#>  3  9.20
#>  4 25.5 
#>  5  6.60
#>  6 28.6 
#>  7 10.0 
#>  8 31.9 
#>  9 12.1 
#> 10 11.4 
#> # … with 239 more rows
…
