Model tuning • agua
…
Other functions in tune for working with tuning results such as
collect_metrics(), collect_predictions() and
autoplot() will also recognize ames_res and
work as expected.

collect_metrics(ames_res, summarize = FALSE)
#> # A tibble: 2,500 × 8
#>    id      penalty `long df` `lat df` .metric .estimator .estimate .config
#>    <chr>     <dbl>     <int>    <int> <chr>   <chr>          <dbl> <chr>  
#>  1 Fold01    1e-10         1        1 rmse    standard      0.115  Prepro…
#>  2 Fold01    1e-10         1        1 rsq     standard      0.550  Prepro…
#>  3 Fold02    1e-10         1        1 rmse    standard      0.112  Prepro…
#>  4 Fold02    1e-10         1        1 rsq     standard      0.603  Prepro…
#>  5 Fold03    1e-10         1        1 rmse    standard      0.116  Prepro…
#>  6 Fold03    1e-10         1        1 rsq     standard      0.563  Prepro…
#>  7 Fold04    1e-10         1        1 rmse    standard      0.112  Prepro…
#>  8 Fold04    1e-10         1        1 rsq     standard      0.581  Prepro…
#>  9 Fold05    1e-10         1        1 rmse    standard      0.0998 Prepro…
#> 10 Fold05    1e-10         1        1 rsq     standard      0.637  Prepro…
#> # ℹ 2,490 more rows
…
Since h2o.grid is only responsible for optimizing model
parameters, the preprocessor parameters long df and
lat df will be iterated as usual on the R side (also for
this reason you can’t use agua with
control_grid(parallel_over = 'everything')). Once a certain
combination of them is chosen, agua will engineer all the relevant
features and pass the data and model definitions to
h2o_grid(). For example, say we choose the preprocess
parameters to be long df = 4 and lat df = 1,
the analysis set in one particular fold becomes

#> # A tibble: 1,976 × 7
#>    Gr_Liv_Area Sale_Price Longitude_ns_1 Longitude_ns_2 Longitude_ns_3
#>          <dbl>      <dbl>          <dbl>          <dbl>          <dbl>
#>  1        2.95       5.02        0.238           0.564           0.211
#>  2        2.95       5.10        0.440           0.466           0.149
#>  3        3.04       5.02        0.452           0.457           0.145
#>  4        3.04       4.94        0.445           0.462           0.147
#>  5        2.96       5.00        0.00276        -0.0705          0.182
#>  6        3.01       4.83        0.0235         -0.134           0.347
#>  7        2.95       5.09        0.0787         -0.178           0.459
#>  8        3.02       5.10        0.109          -0.186           0.482
#>  9        3.09       5.11        0.330           0.532           0.180
#> 10        3.24       4.93        0.317           0.538           0.184
#> # ℹ 1,966 more rows
#> # ℹ 2 more variables: Longitude_ns_4 <dbl>, Latitude_ns_1 <dbl>
…
