Automatic machine learning • agua
…
In 120 seconds, AutoML fitted 105 models. The parsnip fit object extract_fit_parsnip(auto_fit) shows the number of candidate models, the best performing algorithm and its corresponding model id, and a preview of the leaderboard with cross validation performances. The model_id column in the leaderboard is a unique model identifier for the h2o server. This can be useful when you need to predict on or extract a specific model, e.g. with predict(auto_fit, id = id) and extract_fit_engine(auto_fit, id = id). By default, they will operate on the best performing leader model.

# predict with the best model
predict(auto_fit, new_data = concrete_test)
#> # A tibble: 260 × 1
#>    .pred
#>    <dbl>
#>  1  41.6
#>  2  43.0
#>  3  37.8
#>  4  55.9
#>  5  41.1
#>  6  27.1
#>  7  52.8
#>  8  36.5
#>  9  52.5
#> 10  39.4
#> # … with 250 more rows

Typically, we use AutoML to get a quick sense of the range of our success metric, and algorithms that are likely to succeed. agua provides tools to summarize these results.

rank_results() returns the leaderboard in a tidy format with rankings within each metric. A low rank means good performance in a metric. Here, the top 5 models with the smallest MAE includes are four stacked ensembles and one GBM model.

rank_results(auto_fit) %>%
  filter(.metric == "mae") %>%
  arrange(rank)
#> # A tibble: 105 × 5
#>    id                                        algorithm .metric  mean  rank
#>    <chr>                                     <chr>     <chr>   <dbl> <int>
#>  1 StackedEnsemble_BestOfFamily_4_AutoML_1_… stacking  mae      2.91     1
#>  2 XGBoost_grid_1_AutoML_1_20220712_204537_… xgboost   mae      3.03     2
#>  3 StackedEnsemble_AllModels_2_AutoML_1_202… stacking  mae      3.04     3
#>  4 StackedEnsemble_BestOfFamily_3_AutoML_1_… stacking  mae      3.08     4
#>  5 StackedEnsemble_AllModels_1_AutoML_1_202… stacking  mae      3.09     5
#>  6 XGBoost_grid_1_AutoML_1_20220712_204537_… xgboost   mae      3.13     6
#>  7 XGBoost_grid_1_AutoML_1_20220712_204537_… xgboost   mae      3.13     7
#>  8 XGBoost_grid_1_AutoML_1_20220712_204537_… xgboost   mae      3.14     8
#>  9 GBM_5_AutoML_1_20220712_204537            gradient… mae      3.15     9
#> 10 StackedEnsemble_BestOfFamily_2_AutoML_1_… stacking  mae      3.17    10
#> # … with 95 more rows

collect_metrics() returns average statistics of performance metrics (summarized) per model, or raw value for each resample (unsummarized). cv_id identifies the resample h2o internally used for optimization.

collect_metrics(auto_fit, summarize = FALSE)
#> # A tibble: 3,715 × 5
#>    id                                    algorithm .metric cv_id .estimate
#>    <chr>                                 <chr>     <chr>   <chr>     <dbl>
#>  1 StackedEnsemble_BestOfFamily_4_AutoM… stacking  mae     cv_1…      2.68
#>  2 StackedEnsemble_BestOfFamily_4_AutoM… stacking  mae     cv_2…      2.51
#>  3 StackedEnsemble_BestOfFamily_4_AutoM… stacking  mae     cv_3…      3.09
#>  4 StackedEnsemble_BestOfFamily_4_AutoM… stacking  mae     cv_4…      3.24
#>  5 StackedEnsemble_BestOfFamily_4_AutoM… stacking  mae     cv_5…      3.02
#>  6 StackedEnsemble_BestOfFamily_4_AutoM… stacking  mean_r… cv_1…     16.2 
#>  7 StackedEnsemble_BestOfFamily_4_AutoM… stacking  mean_r… cv_2…     17.3 
#>  8 StackedEnsemble_BestOfFamily_4_AutoM… stacking  mean_r… cv_3…     20.0 
#>  9 StackedEnsemble_BestOfFamily_4_AutoM… stacking  mean_r… cv_4…     26.5 
#> 10 StackedEnsemble_BestOfFamily_4_AutoM… stacking  mean_r… cv_5…     20.8 
#> # … with 3,705 more rows

tidy() returns a tibble with performance and individual model objects. This is helpful if you want to perform operations (e.g., predict) across all candidates.

tidy(auto_fit) %>%
  mutate(
    .predictions = map(.model, predict, new_data = head(concrete_test))
  )
#> # A tibble: 105 × 5
#>    id                             algorithm .metric  .model   .predictions
#>    <chr>                          <chr>     <list>   <list>   <list>      
#>  1 StackedEnsemble_BestOfFamily_… stacking  <tibble> <fit[+]> <tibble>    
#>  2 XGBoost_grid_1_AutoML_1_20220… xgboost   <tibble> <fit[+]> <tibble>    
#>  3 StackedEnsemble_AllModels_2_A… stacking  <tibble> <fit[+]> <tibble>    
#>  4 StackedEnsemble_AllModels_1_A… stacking  <tibble> <fit[+]> <tibble>    
#>  5 XGBoost_grid_1_AutoML_1_20220… xgboost   <tibble> <fit[+]> <tibble>    
#>  6 StackedEnsemble_BestOfFamily_… stacking  <tibble> <fit[+]> <tibble>    
#>  7 StackedEnsemble_BestOfFamily_… stacking  <tibble> <fit[+]> <tibble>    
#>  8 XGBoost_grid_1_AutoML_1_20220… xgboost   <tibble> <fit[+]> <tibble>    
#>  9 XGBoost_grid_1_AutoML_1_20220… xgboost   <tibble> <fit[+]> <tibble>    
#> 10 GBM_5_AutoML_1_20220712_204537 gradient… <tibble> <fit[+]> <tibble>    
#> # … with 95 more rows
…
