Model tuning • agua
…
The syntax is the same, we provide a workflow and the grid of hyper-parameters, then tune_grid() returns cross validation performances for every parameterization per resample. There are two small differences to note when tuning h2o models:

Remember to call h2o_start() beforehand to enable all the h2o side of computations.

h2o supports only a regular grid of hyper-parameters, as created by expand.grid(), see ?dials::grid_regular for more details. As such we need to set grid in tune_*() functions explicitly to be a data frame of regular grid and prevent the default grid generation.

Other functions in tune for working with tuning results such as collect_metrics(), collect_predictions() and autoplot() will also recognize ames_res and work as expected.

collect_metrics(ames_res, summarize = FALSE)

## # A tibble: 2,500 × 8
##    id      penalty `long df` `lat df` .metric .estimator .estimate .config
##    <chr>     <dbl>     <int>    <int> <chr>   <chr>          <dbl> <chr>  
##  1 Fold01    1e-10         1        1 rmse    standard      0.115  Prepro…
##  2 Fold01    1e-10         1        1 rsq     standard      0.550  Prepro…
##  3 Fold02    1e-10         1        1 rmse    standard      0.112  Prepro…
##  4 Fold02    1e-10         1        1 rsq     standard      0.603  Prepro…
##  5 Fold03    1e-10         1        1 rmse    standard      0.116  Prepro…
##  6 Fold03    1e-10         1        1 rsq     standard      0.563  Prepro…
##  7 Fold04    1e-10         1        1 rmse    standard      0.112  Prepro…
##  8 Fold04    1e-10         1        1 rsq     standard      0.581  Prepro…
##  9 Fold05    1e-10         1        1 rmse    standard      0.0998 Prepro…
## 10 Fold05    1e-10         1        1 rsq     standard      0.637  Prepro…
## # … with 2,490 more rows
…
